…
# View log_diam_dataset
log_diam_dataset
#> # A tibble: 146,519 × 3
#>    diameter log_diam exp_log_diam
#>       <dbl>    <dbl>        <dbl>
#>  1      435     6.08         435.
#>  2      317     5.76         317.
#>  3      305     5.72         305.
#>  4      182     5.20         182.
#>  5      161     5.08         161.
#>  6      156     5.05         156.
#>  7      151     5.02         151.
#>  8      144     4.97         144.
#>  9      141     4.95         141.
#> 10      131     4.88         131.
#> # ℹ 146,509 more rows
…
